[
    {
      "Nombre": "Zombi ",
      "Vida": 50,
      "Daño": 4
    },
    {
      "Nombre": "Escopetero ",
      "Vida": 60,
      "Daño": 6
    },
    {
      "Nombre": "Diablillo ",
      "Vida": 70,
      "Daño": 8
    },
    {
      "Nombre": "Demonio ",
      "Vida": 80,
      "Daño": 10
    },
    {
      "Nombre": "Espectro ",
      "Vida": 80,
      "Daño": 10
    },
    {
      "Nombre": "Alma perdida ",
      "Vida": 45,
      "Daño": 6
    },
    {
      "Nombre": "Cacodemon ",
      "Vida": 215,
      "Daño": 10
    },
    {
      "Nombre": "Barón ",
      "Vida": 230,
      "Daño": 12
    },
    {
      "Nombre": "Cyberdemon ",
      "Vida": 500,
      "Daño": 16
    },
    {
      "Nombre": "Araña Cerebro ",
      "Vida": 600,
      "Daño": 18
    }
   ]